…
    ## file last updated:  2019-09-03 10:46:22

    ## file min/max dates: 1965-01-01 / 2019-08-31

    ## file path:          /Users/osukuma/Library/Caches/rnoaa/ghcnd/USS0023B17S.dly

    ## file last updated:  2019-09-03 10:46:25

    ## file min/max dates: 1999-09-01 / 2019-08-31

``` r
weather_df
```

    ## # A tibble: 1,095 x 7
    ##    name           id          date        prcp  tmax  tmin month     
    ##    <chr>          <chr>       <date>     <dbl> <dbl> <dbl> <date>    
    ##  1 CentralPark_NY USW00094728 2017-01-01     0   8.9   4.4 2017-01-01
    ##  2 CentralPark_NY USW00094728 2017-01-02    53   5     2.8 2017-01-01
    ##  3 CentralPark_NY USW00094728 2017-01-03   147   6.1   3.9 2017-01-01
    ##  4 CentralPark_NY USW00094728 2017-01-04     0  11.1   1.1 2017-01-01
    ##  5 CentralPark_NY USW00094728 2017-01-05     0   1.1  -2.7 2017-01-01
    ##  6 CentralPark_NY USW00094728 2017-01-06    13   0.6  -3.8 2017-01-01
    ##  7 CentralPark_NY USW00094728 2017-01-07    81  -3.2  -6.6 2017-01-01
    ##  8 CentralPark_NY USW00094728 2017-01-08     0  -3.8  -8.8 2017-01-01
    ##  9 CentralPark_NY USW00094728 2017-01-09     0  -4.9  -9.9 2017-01-01
    ## 10 CentralPark_NY USW00094728 2017-01-10     0   7.8  -6   2017-01-01
    ## # … with 1,085 more rows

## `group_by`

``` r
weather_df %>% 
  group_by(name,month)
```

    ## # A tibble: 1,095 x 7
    ## # Groups:   name, month [36]
    ##    name           id          date        prcp  tmax  tmin month     
    ##    <chr>          <chr>       <date>     <dbl> <dbl> <dbl> <date>    
    ##  1 CentralPark_NY USW00094728 2017-01-01     0   8.9   4.4 2017-01-01
    ##  2 CentralPark_NY USW00094728 2017-01-02    53   5     2.8 2017-01-01
    ##  3 CentralPark_NY USW00094728 2017-01-03   147   6.1   3.9 2017-01-01
    ##  4 CentralPark_NY USW00094728 2017-01-04     0  11.1   1.1 2017-01-01
    ##  5 CentralPark_NY USW00094728 2017-01-05     0   1.1  -2.7 2017-01-01
    ##  6 CentralPark_NY USW00094728 2017-01-06    13   0.6  -3.8 2017-01-01
    ##  7 CentralPark_NY USW00094728 2017-01-07    81  -3.2  -6.6 2017-01-01
    ##  8 CentralPark_NY USW00094728 2017-01-08     0  -3.8  -8.8 2017-01-01
    ##  9 CentralPark_NY USW00094728 2017-01-09     0  -4.9  -9.9 2017-01-01
    ## 10 CentralPark_NY USW00094728 2017-01-10     0   7.8  -6   2017-01-01
    ## # … with 1,085 more rows
…
``` r
weather_df %>%
  group_by(name,month) %>%
  summarize(n_obs = n())
```

    ## # A tibble: 36 x 3
    ## # Groups:   name [3]
    ##    name           month      n_obs
    ##    <chr>          <date>     <int>
    ##  1 CentralPark_NY 2017-01-01    31
    ##  2 CentralPark_NY 2017-02-01    28
    ##  3 CentralPark_NY 2017-03-01    31
    ##  4 CentralPark_NY 2017-04-01    30
    ##  5 CentralPark_NY 2017-05-01    31
    ##  6 CentralPark_NY 2017-06-01    30
    ##  7 CentralPark_NY 2017-07-01    31
    ##  8 CentralPark_NY 2017-08-01    31
    ##  9 CentralPark_NY 2017-09-01    30
    ## 10 CentralPark_NY 2017-10-01    31
    ## # … with 26 more rows
…
``` r
weather_df %>%
  count(name,month) 
```

    ## # A tibble: 36 x 3
    ##    name           month          n
    ##    <chr>          <date>     <int>
    ##  1 CentralPark_NY 2017-01-01    31
    ##  2 CentralPark_NY 2017-02-01    28
    ##  3 CentralPark_NY 2017-03-01    31
    ##  4 CentralPark_NY 2017-04-01    30
    ##  5 CentralPark_NY 2017-05-01    31
    ##  6 CentralPark_NY 2017-06-01    30
    ##  7 CentralPark_NY 2017-07-01    31
    ##  8 CentralPark_NY 2017-08-01    31
    ##  9 CentralPark_NY 2017-09-01    30
    ## 10 CentralPark_NY 2017-10-01    31
    ## # … with 26 more rows
…
## don’t forget ungroup??

``` r
weather_df %>% 
  group_by(name) %>% 
  ungroup()
```

    ## # A tibble: 1,095 x 7
    ##    name           id          date        prcp  tmax  tmin month     
    ##    <chr>          <chr>       <date>     <dbl> <dbl> <dbl> <date>    
    ##  1 CentralPark_NY USW00094728 2017-01-01     0   8.9   4.4 2017-01-01
    ##  2 CentralPark_NY USW00094728 2017-01-02    53   5     2.8 2017-01-01
    ##  3 CentralPark_NY USW00094728 2017-01-03   147   6.1   3.9 2017-01-01
    ##  4 CentralPark_NY USW00094728 2017-01-04     0  11.1   1.1 2017-01-01
    ##  5 CentralPark_NY USW00094728 2017-01-05     0   1.1  -2.7 2017-01-01
    ##  6 CentralPark_NY USW00094728 2017-01-06    13   0.6  -3.8 2017-01-01
    ##  7 CentralPark_NY USW00094728 2017-01-07    81  -3.2  -6.6 2017-01-01
    ##  8 CentralPark_NY USW00094728 2017-01-08     0  -3.8  -8.8 2017-01-01
    ##  9 CentralPark_NY USW00094728 2017-01-09     0  -4.9  -9.9 2017-01-01
    ## 10 CentralPark_NY USW00094728 2017-01-10     0   7.8  -6   2017-01-01
    ## # … with 1,085 more rows
…
<img src="EDA_files/figure-gfm/unnamed-chunk-12-1.png" width="90%" />

window functions in grouped mutates

``` r
weather_df %>% 
  group_by(name,month) %>% 
  mutate(
    tmax_rank = min_rank(tmax)
  ) %>% 
  filter(tmax_rank == 1)
```

    ## # A tibble: 42 x 8
    ## # Groups:   name, month [36]
    ##    name         id        date        prcp  tmax  tmin month      tmax_rank
    ##    <chr>        <chr>     <date>     <dbl> <dbl> <dbl> <date>         <int>
    ##  1 CentralPark… USW00094… 2017-01-09     0  -4.9  -9.9 2017-01-01         1
    ##  2 CentralPark… USW00094… 2017-02-10     0   0    -7.1 2017-02-01         1
    ##  3 CentralPark… USW00094… 2017-03-15     0  -3.2  -6.6 2017-03-01         1
    ##  4 CentralPark… USW00094… 2017-04-01     0   8.9   2.8 2017-04-01         1
    ##  5 CentralPark… USW00094… 2017-05-13   409  11.7   7.2 2017-05-01         1
    ##  6 CentralPark… USW00094… 2017-06-06    15  14.4  11.1 2017-06-01         1
    ##  7 CentralPark… USW00094… 2017-07-25     0  21.7  16.7 2017-07-01         1
    ##  8 CentralPark… USW00094… 2017-08-29    74  20    16.1 2017-08-01         1
    ##  9 CentralPark… USW00094… 2017-09-30     0  18.9  12.2 2017-09-01         1
    ## 10 CentralPark… USW00094… 2017-10-31     0  13.9   7.2 2017-10-01         1
    ## # … with 32 more rows
…
